TIME 0 1160440555.3029
INFO: read 8192 bytes (a block) at 1160440555.302892
TIME 1 1160440555.3356
INFO: read 8192 bytes (a block) at 1160440555.335605
TIME 2 1160440555.3708
INFO: read 8192 bytes (a block) at 1160440555.370848
TIME 3 1160440555.4123
INFO: read 8192 bytes (a block) at 1160440555.412301
TIME 4 1160440555.4123
INFO: read 8192 bytes (a block) at 1160440555.412334
TIME 5 1160440555.4431
INFO: read 8192 bytes (a block) at 1160440555.443106
TIME 6 1160440555.4439
INFO: read 8192 bytes (a block) at 1160440555.443864
TIME 7 1160440555.4446
INFO: read 8192 bytes (a block) at 1160440555.444608
TIME 8 1160440555.4743
INFO: read 8192 bytes (a block) at 1160440555.474325
TIME 9 1160440555.4754
INFO: read 8192 bytes (a block) at 1160440555.475427
TIME 10 1160440555.4767
INFO: read 8192 bytes (a block) at 1160440555.476675
TIME 11 1160440555.5050
INFO: read 8192 bytes (a block) at 1160440555.504955
TIME 12 1160440555.5058
INFO: read 8192 bytes (a block) at 1160440555.505818
TIME 13 1160440555.5071
INFO: read 8192 bytes (a block) at 1160440555.507052
TIME 14 1160440555.5093
INFO: read 8192 bytes (a block) at 1160440555.509327
TIME 15 1160440555.5395
INFO: read 8192 bytes (a block) at 1160440555.539531
TIME 16 1160440555.5396
INFO: read 8192 bytes (a block) at 1160440555.539561
TIME 17 1160440555.5396
INFO: read 8192 bytes (a block) at 1160440555.539573
TIME 18 1160440555.5720
INFO: read 8192 bytes (a block) at 1160440555.571963
TIME 19 1160440555.5720
INFO: read 8192 bytes (a block) at 1160440555.571997
TIME 20 1160440555.5725
INFO: read 8192 bytes (a block) at 1160440555.572472
TIME 21 1160440555.6028
INFO: read 8192 bytes (a block) at 1160440555.602776
TIME 22 1160440555.6034
INFO: read 8192 bytes (a block) at 1160440555.603427
TIME 23 1160440555.6043
INFO: read 8192 bytes (a block) at 1160440555.604275
TIME 24 1160440555.6069
INFO: read 8192 bytes (a block) at 1160440555.606924
TIME 25 1160440555.6339
INFO: read 8192 bytes (a block) at 1160440555.633924
TIME 26 1160440555.6346
INFO: read 8192 bytes (a block) at 1160440555.634615
TIME 27 1160440555.6528
INFO: read 8192 bytes (a block) at 1160440555.652775
TIME 28 1160440555.6648
INFO: read 8192 bytes (a block) at 1160440555.664761
TIME 29 1160440555.6655
INFO: read 8192 bytes (a block) at 1160440555.665509
TIME 30 1160440555.6666
INFO: read 8192 bytes (a block) at 1160440555.666624
TIME 31 1160440555.6946
INFO: read 8192 bytes (a block) at 1160440555.694569
TIME 32 1160440555.6959
INFO: read 8192 bytes (a block) at 1160440555.695884
TIME 33 1160440555.6967
INFO: read 8192 bytes (a block) at 1160440555.696657
TIME 34 1160440555.7141
INFO: read 8192 bytes (a block) at 1160440555.714108
TIME 35 1160440555.7258
INFO: read 8192 bytes (a block) at 1160440555.725768
TIME 36 1160440555.7269
INFO: read 8192 bytes (a block) at 1160440555.726938
TIME 37 1160440555.7277
INFO: read 8192 bytes (a block) at 1160440555.727687
TIME 38 1160440555.7513
INFO: read 8192 bytes (a block) at 1160440555.751346
TIME 39 1160440555.7905
INFO: read 8192 bytes (a block) at 1160440555.790508
TIME 40 1160440555.7905
INFO: read 8192 bytes (a block) at 1160440555.790539
TIME 41 1160440555.8014
INFO: read 8192 bytes (a block) at 1160440555.801414
TIME 42 1160440555.8213
INFO: read 8192 bytes (a block) at 1160440555.821322
TIME 43 1160440555.8220
INFO: read 8192 bytes (a block) at 1160440555.821984
TIME 44 1160440555.8227
INFO: read 8192 bytes (a block) at 1160440555.822719
TIME 45 1160440555.8358
INFO: read 8192 bytes (a block) at 1160440555.835814
TIME 46 1160440555.8526
INFO: read 8192 bytes (a block) at 1160440555.852646
TIME 47 1160440555.8534
INFO: read 8192 bytes (a block) at 1160440555.853377
TIME 48 1160440555.8628
INFO: read 8192 bytes (a block) at 1160440555.862769
TIME 49 1160440555.8835
INFO: read 8192 bytes (a block) at 1160440555.883520
TIME 50 1160440555.8849
INFO: read 8192 bytes (a block) at 1160440555.884862
TIME 51 1160440555.8934
INFO: read 8192 bytes (a block) at 1160440555.893373
TIME 52 1160440555.9146
INFO: read 8192 bytes (a block) at 1160440555.914600
TIME 53 1160440555.9157
INFO: read 8192 bytes (a block) at 1160440555.915709
TIME 54 1160440555.9238
INFO: read 8192 bytes (a block) at 1160440555.923818
TIME 55 1160440555.9452
INFO: read 8192 bytes (a block) at 1160440555.945180
TIME 56 1160440555.9461
INFO: read 8192 bytes (a block) at 1160440555.946105
TIME 57 1160440555.9472
INFO: read 8192 bytes (a block) at 1160440555.947167
TIME 58 1160440555.9550
INFO: read 8192 bytes (a block) at 1160440555.954995
TIME 59 1160440555.9760
INFO: read 8192 bytes (a block) at 1160440555.975966
TIME 60 1160440555.9770
INFO: read 8192 bytes (a block) at 1160440555.976992
TIME 61 1160440555.9783
INFO: read 8192 bytes (a block) at 1160440555.978310
TIME 62 1160440556.0062
INFO: read 8192 bytes (a block) at 1160440556.006222
TIME 63 1160440556.0074
INFO: read 8192 bytes (a block) at 1160440556.007379
TIME 64 1160440556.0083
INFO: read 8192 bytes (a block) at 1160440556.008334
TIME 65 1160440556.0218
INFO: read 8192 bytes (a block) at 1160440556.021801
TIME 66 1160440556.0374
INFO: read 8192 bytes (a block) at 1160440556.037406
TIME 67 1160440556.0384
INFO: read 8192 bytes (a block) at 1160440556.038439
TIME 68 1160440556.0398
INFO: read 8192 bytes (a block) at 1160440556.039795
TIME 69 1160440556.0576
INFO: read 8192 bytes (a block) at 1160440556.057639
TIME 70 1160440556.0686
INFO: read 8192 bytes (a block) at 1160440556.068578
TIME 71 1160440556.0706
INFO: read 8192 bytes (a block) at 1160440556.070618
TIME 72 1160440556.0845
INFO: read 8192 bytes (a block) at 1160440556.084488
TIME 73 1160440556.1011
INFO: read 8192 bytes (a block) at 1160440556.101052
TIME 74 1160440556.1044
INFO: read 8192 bytes (a block) at 1160440556.104352
TIME 75 1160440556.1284
INFO: read 8192 bytes (a block) at 1160440556.128380
TIME 76 1160440556.1321
INFO: read 8192 bytes (a block) at 1160440556.132126
TIME 77 1160440556.1329
INFO: read 8192 bytes (a block) at 1160440556.132923
TIME 78 1160440556.1494
INFO: read 8192 bytes (a block) at 1160440556.149426
TIME 79 1160440556.1623
INFO: read 8192 bytes (a block) at 1160440556.162322
TIME 80 1160440556.1672
INFO: read 8192 bytes (a block) at 1160440556.167194
TIME 81 1160440556.1682
INFO: read 8192 bytes (a block) at 1160440556.168186
TIME 82 1160440556.1895
INFO: read 8192 bytes (a block) at 1160440556.189524
TIME 83 1160440556.1994
INFO: read 8192 bytes (a block) at 1160440556.199357
TIME 84 1160440556.2156
INFO: read 8192 bytes (a block) at 1160440556.215591
TIME 85 1160440556.2270
INFO: read 8192 bytes (a block) at 1160440556.227010
TIME 86 1160440556.2380
INFO: read 8192 bytes (a block) at 1160440556.237997
TIME 87 1160440556.2460
INFO: read 8192 bytes (a block) at 1160440556.245989
TIME 88 1160440556.2582
INFO: read 8192 bytes (a block) at 1160440556.258228
TIME 89 1160440556.2689
INFO: read 8192 bytes (a block) at 1160440556.268873
TIME 90 1160440556.2696
INFO: read 8192 bytes (a block) at 1160440556.269573
TIME 91 1160440556.2772
INFO: read 8192 bytes (a block) at 1160440556.277169
TIME 92 1160440556.2902
INFO: read 8192 bytes (a block) at 1160440556.290220
TIME 93 1160440556.2998
INFO: read 8192 bytes (a block) at 1160440556.299801
TIME 94 1160440556.3005
INFO: read 8192 bytes (a block) at 1160440556.300550
TIME 95 1160440556.3152
INFO: read 8192 bytes (a block) at 1160440556.315180
TIME 96 1160440556.3306
INFO: read 8192 bytes (a block) at 1160440556.330573
TIME 97 1160440556.3341
INFO: read 8192 bytes (a block) at 1160440556.334062
TIME 98 1160440556.3420
INFO: read 8192 bytes (a block) at 1160440556.341990
TIME 99 1160440556.3528
INFO: read 8192 bytes (a block) at 1160440556.352786
TIME 100 1160440556.3620
INFO: read 8192 bytes (a block) at 1160440556.362028
TIME 101 1160440556.3683
INFO: read 8192 bytes (a block) at 1160440556.368344
TIME 102 1160440556.3839
INFO: read 8192 bytes (a block) at 1160440556.383858
TIME 103 1160440556.3920
INFO: read 8192 bytes (a block) at 1160440556.392042
TIME 104 1160440556.3961
INFO: read 8192 bytes (a block) at 1160440556.396058
TIME 105 1160440556.4138
INFO: read 8192 bytes (a block) at 1160440556.413848
TIME 106 1160440556.4221
INFO: read 8192 bytes (a block) at 1160440556.422135
TIME 107 1160440556.4329
INFO: read 8192 bytes (a block) at 1160440556.432921
TIME 108 1160440556.4364
INFO: read 8192 bytes (a block) at 1160440556.436441
TIME 109 1160440556.4450
INFO: read 8192 bytes (a block) at 1160440556.444983
TIME 110 1160440556.4538
INFO: read 8192 bytes (a block) at 1160440556.453821
TIME 111 1160440556.4896
INFO: read 8192 bytes (a block) at 1160440556.489589
TIME 112 1160440556.4910
INFO: read 8192 bytes (a block) at 1160440556.491015
TIME 113 1160440556.4928
INFO: read 8192 bytes (a block) at 1160440556.492764
TIME 114 1160440556.5204
INFO: read 8192 bytes (a block) at 1160440556.520357
TIME 115 1160440556.5252
INFO: read 8192 bytes (a block) at 1160440556.525204
TIME 116 1160440556.5261
INFO: read 8192 bytes (a block) at 1160440556.526100
TIME 117 1160440556.5504
INFO: read 8192 bytes (a block) at 1160440556.550448
TIME 118 1160440556.5547
INFO: read 8192 bytes (a block) at 1160440556.554685
TIME 119 1160440556.5915
INFO: read 8192 bytes (a block) at 1160440556.591462
TIME 120 1160440556.5915
INFO: read 8192 bytes (a block) at 1160440556.591494
TIME 121 1160440556.5915
INFO: read 8192 bytes (a block) at 1160440556.591511
TIME 122 1160440556.6218
INFO: read 8192 bytes (a block) at 1160440556.621823
TIME 123 1160440556.6226
INFO: read 8192 bytes (a block) at 1160440556.622591
TIME 124 1160440556.6234
INFO: read 8192 bytes (a block) at 1160440556.623442
TIME 125 1160440556.6243
INFO: read 8192 bytes (a block) at 1160440556.624330
TIME 126 1160440556.6534
INFO: read 8192 bytes (a block) at 1160440556.653357
TIME 127 1160440556.6542
INFO: read 8192 bytes (a block) at 1160440556.654230
TIME 128 1160440556.6573
INFO: read 8192 bytes (a block) at 1160440556.657327
TIME 129 1160440556.6838
INFO: read 8192 bytes (a block) at 1160440556.683790
TIME 130 1160440556.6848
INFO: read 8192 bytes (a block) at 1160440556.684844
TIME 131 1160440556.6880
INFO: read 8192 bytes (a block) at 1160440556.688042
TIME 132 1160440556.7175
INFO: read 8192 bytes (a block) at 1160440556.717520
TIME 133 1160440556.7193
INFO: read 8192 bytes (a block) at 1160440556.719273
TIME 134 1160440556.7209
INFO: read 8192 bytes (a block) at 1160440556.720918
TIME 135 1160440556.7230
INFO: read 8192 bytes (a block) at 1160440556.722956
TIME 136 1160440556.7489
INFO: read 8192 bytes (a block) at 1160440556.748927
TIME 137 1160440556.7527
INFO: read 8192 bytes (a block) at 1160440556.752652
TIME 138 1160440556.7543
INFO: read 8192 bytes (a block) at 1160440556.754304
TIME 139 1160440556.7808
INFO: read 8192 bytes (a block) at 1160440556.780757
TIME 140 1160440556.7835
INFO: read 8192 bytes (a block) at 1160440556.783458
TIME 141 1160440556.7848
INFO: read 8192 bytes (a block) at 1160440556.784775
TIME 142 1160440556.8169
INFO: read 8192 bytes (a block) at 1160440556.816942
TIME 143 1160440556.8170
INFO: read 8192 bytes (a block) at 1160440556.816964
TIME 144 1160440556.8170
INFO: read 8192 bytes (a block) at 1160440556.816978
TIME 145 1160440556.8474
INFO: read 8192 bytes (a block) at 1160440556.847384
TIME 146 1160440556.8483
INFO: read 8192 bytes (a block) at 1160440556.848256
TIME 147 1160440556.8493
INFO: read 8192 bytes (a block) at 1160440556.849269
TIME 148 1160440556.8500
INFO: read 8192 bytes (a block) at 1160440556.849975
TIME 149 1160440556.8794
INFO: read 8192 bytes (a block) at 1160440556.879415
TIME 150 1160440556.8823
INFO: read 8192 bytes (a block) at 1160440556.882259
TIME 151 1160440556.8831
INFO: read 8192 bytes (a block) at 1160440556.883089
TIME 152 1160440556.8843
INFO: read 8192 bytes (a block) at 1160440556.884330
TIME 153 1160440556.9133
INFO: read 8192 bytes (a block) at 1160440556.913332
TIME 154 1160440556.9144
INFO: read 8192 bytes (a block) at 1160440556.914444
TIME 155 1160440556.9152
INFO: read 8192 bytes (a block) at 1160440556.915215
TIME 156 1160440556.9449
INFO: read 8192 bytes (a block) at 1160440556.944949
TIME 157 1160440556.9478
INFO: read 8192 bytes (a block) at 1160440556.947819
TIME 158 1160440556.9748
INFO: read 8192 bytes (a block) at 1160440556.974808
TIME 159 1160440556.9774
INFO: read 8192 bytes (a block) at 1160440556.977424
TIME 160 1160440556.9789
INFO: read 8192 bytes (a block) at 1160440556.978890
TIME 161 1160440557.0055
INFO: read 8192 bytes (a block) at 1160440557.005456
TIME 162 1160440557.0087
INFO: read 8192 bytes (a block) at 1160440557.008660
TIME 163 1160440557.0103
INFO: read 8192 bytes (a block) at 1160440557.010296
TIME 164 1160440557.0245
INFO: read 8192 bytes (a block) at 1160440557.024546
TIME 165 1160440557.0393
INFO: read 8192 bytes (a block) at 1160440557.039344
TIME 166 1160440557.0504
INFO: read 8192 bytes (a block) at 1160440557.050421
TIME 167 1160440557.0505
INFO: read 8192 bytes (a block) at 1160440557.050452
TIME 168 1160440557.0719
INFO: read 8192 bytes (a block) at 1160440557.071912
TIME 169 1160440557.0819
INFO: read 8192 bytes (a block) at 1160440557.081892
TIME 170 1160440557.0828
INFO: read 8192 bytes (a block) at 1160440557.082776
TIME 171 1160440557.0891
INFO: read 8192 bytes (a block) at 1160440557.089058
TIME 172 1160440557.1061
INFO: read 8192 bytes (a block) at 1160440557.106146
TIME 173 1160440557.1132
INFO: read 8192 bytes (a block) at 1160440557.113181
TIME 174 1160440557.1143
INFO: read 8192 bytes (a block) at 1160440557.114300
TIME 175 1160440557.1350
INFO: read 8192 bytes (a block) at 1160440557.134951
TIME 176 1160440557.1441
INFO: read 8192 bytes (a block) at 1160440557.144067
TIME 177 1160440557.2971
INFO: read 8192 bytes (a block) at 1160440557.297064
TIME 178 1160440557.2982
INFO: read 8192 bytes (a block) at 1160440557.298155
TIME 179 1160440557.3001
INFO: read 8192 bytes (a block) at 1160440557.300091
TIME 180 1160440557.3282
INFO: read 8192 bytes (a block) at 1160440557.328208
TIME 181 1160440557.3292
INFO: read 8192 bytes (a block) at 1160440557.329151
TIME 182 1160440557.3326
INFO: read 8192 bytes (a block) at 1160440557.332583
TIME 183 1160440557.3591
INFO: read 8192 bytes (a block) at 1160440557.359067
TIME 184 1160440557.3600
INFO: read 8192 bytes (a block) at 1160440557.359992
TIME 185 1160440557.3656
INFO: read 8192 bytes (a block) at 1160440557.365634
TIME 186 1160440557.3893
INFO: read 8192 bytes (a block) at 1160440557.389309
TIME 187 1160440557.3902
INFO: read 8192 bytes (a block) at 1160440557.390174
TIME 188 1160440557.3912
INFO: read 8192 bytes (a block) at 1160440557.391206
TIME 189 1160440557.4097
INFO: read 8192 bytes (a block) at 1160440557.409714
TIME 190 1160440557.4203
INFO: read 8192 bytes (a block) at 1160440557.420309
TIME 191 1160440557.4260
INFO: read 8192 bytes (a block) at 1160440557.425995
TIME 192 1160440557.4410
INFO: read 8192 bytes (a block) at 1160440557.440990
TIME 193 1160440557.4513
INFO: read 8192 bytes (a block) at 1160440557.451259
TIME 194 1160440557.4578
INFO: read 8192 bytes (a block) at 1160440557.457827
TIME 195 1160440557.4707
INFO: read 8192 bytes (a block) at 1160440557.470677
TIME 196 1160440557.4825
INFO: read 8192 bytes (a block) at 1160440557.482523
TIME 197 1160440557.4834
INFO: read 8192 bytes (a block) at 1160440557.483390
TIME 198 1160440557.4888
INFO: read 8192 bytes (a block) at 1160440557.488846
TIME 199 1160440557.5037
INFO: read 8192 bytes (a block) at 1160440557.503693
TIME 200 1160440557.5521
INFO: read 8192 bytes (a block) at 1160440557.552080
TIME 201 1160440557.5546
INFO: read 8192 bytes (a block) at 1160440557.554639
TIME 202 1160440557.5986
INFO: read 8192 bytes (a block) at 1160440557.598599
TIME 203 1160440557.5999
INFO: read 8192 bytes (a block) at 1160440557.599931
TIME 204 1160440557.6013
INFO: read 8192 bytes (a block) at 1160440557.601296
TIME 205 1160440557.6025
INFO: read 8192 bytes (a block) at 1160440557.602505
TIME 206 1160440557.6327
INFO: read 8192 bytes (a block) at 1160440557.632679
TIME 207 1160440557.6327
INFO: read 8192 bytes (a block) at 1160440557.632713
TIME 208 1160440557.6422
INFO: read 8192 bytes (a block) at 1160440557.642217
TIME 209 1160440557.6636
INFO: read 8192 bytes (a block) at 1160440557.663626
TIME 210 1160440557.6724
INFO: read 8192 bytes (a block) at 1160440557.672436
TIME 211 1160440557.6743
INFO: read 8192 bytes (a block) at 1160440557.674280
TIME 212 1160440557.6809
INFO: read 8192 bytes (a block) at 1160440557.680863
TIME 213 1160440557.6979
INFO: read 8192 bytes (a block) at 1160440557.697870
TIME 214 1160440557.7046
INFO: read 8192 bytes (a block) at 1160440557.704595
TIME 215 1160440557.7115
INFO: read 8192 bytes (a block) at 1160440557.711495
TIME 216 1160440557.7292
INFO: read 8192 bytes (a block) at 1160440557.729240
TIME 217 1160440557.7346
INFO: read 8192 bytes (a block) at 1160440557.734585
TIME 218 1160440557.7367
INFO: read 8192 bytes (a block) at 1160440557.736664
TIME 219 1160440557.7423
INFO: read 8192 bytes (a block) at 1160440557.742304
TIME 220 1160440557.7638
INFO: read 8192 bytes (a block) at 1160440557.763782
TIME 221 1160440557.7676
INFO: read 8192 bytes (a block) at 1160440557.767590
TIME 222 1160440557.7725
INFO: read 8192 bytes (a block) at 1160440557.772488
TIME 223 1160440557.7906
INFO: read 8192 bytes (a block) at 1160440557.790609
TIME 224 1160440557.8040
INFO: read 8192 bytes (a block) at 1160440557.804021
TIME 225 1160440557.8050
INFO: read 8192 bytes (a block) at 1160440557.804953
TIME 226 1160440557.8088
INFO: read 8192 bytes (a block) at 1160440557.808768
TIME 227 1160440557.8358
INFO: read 8192 bytes (a block) at 1160440557.835800
TIME 228 1160440557.8366
INFO: read 8192 bytes (a block) at 1160440557.836564
TIME 229 1160440557.8373
INFO: read 8192 bytes (a block) at 1160440557.837345
TIME 230 1160440557.8517
INFO: read 8192 bytes (a block) at 1160440557.851705
TIME 231 1160440557.8676
INFO: read 8192 bytes (a block) at 1160440557.867598
TIME 232 1160440557.8736
INFO: read 8192 bytes (a block) at 1160440557.873635
TIME 233 1160440557.8737
INFO: read 8192 bytes (a block) at 1160440557.873669
TIME 234 1160440557.8983
INFO: read 8192 bytes (a block) at 1160440557.898269
TIME 235 1160440557.9042
INFO: read 8192 bytes (a block) at 1160440557.904208
TIME 236 1160440557.9050
INFO: read 8192 bytes (a block) at 1160440557.905010
TIME 237 1160440557.9130
INFO: read 8192 bytes (a block) at 1160440557.913015
TIME 238 1160440557.9304
INFO: read 8192 bytes (a block) at 1160440557.930369
TIME 239 1160440557.9352
INFO: read 8192 bytes (a block) at 1160440557.935163
TIME 240 1160440557.9361
INFO: read 8192 bytes (a block) at 1160440557.936063
TIME 241 1160440557.9441
INFO: read 8192 bytes (a block) at 1160440557.944056
TIME 242 1160440557.9722
INFO: read 8192 bytes (a block) at 1160440557.972167
TIME 243 1160440557.9877
INFO: read 8192 bytes (a block) at 1160440557.987655
TIME 244 1160440557.9951
INFO: read 8192 bytes (a block) at 1160440557.995134
TIME 245 1160440558.0047
INFO: read 8192 bytes (a block) at 1160440558.004695
TIME 246 1160440558.0186
INFO: read 8192 bytes (a block) at 1160440558.018638
TIME 247 1160440558.0229
INFO: read 8192 bytes (a block) at 1160440558.022946
TIME 248 1160440558.0361
INFO: read 8192 bytes (a block) at 1160440558.036078
TIME 249 1160440558.0386
INFO: read 8192 bytes (a block) at 1160440558.038612
TIME 250 1160440558.0536
INFO: read 8192 bytes (a block) at 1160440558.053558
TIME 251 1160440558.0586
INFO: read 8192 bytes (a block) at 1160440558.058636
TIME 252 1160440558.0675
INFO: read 8192 bytes (a block) at 1160440558.067515
TIME 253 1160440558.0805
INFO: read 8192 bytes (a block) at 1160440558.080517
TIME 254 1160440558.0846
INFO: read 8192 bytes (a block) at 1160440558.084624
TIME 255 1160440558.1086
INFO: read 8192 bytes (a block) at 1160440558.108571
TIME 256 1160440558.1117
INFO: read 8192 bytes (a block) at 1160440558.111738
TIME 257 1160440558.1196
INFO: read 8192 bytes (a block) at 1160440558.119614
TIME 258 1160440558.1395
INFO: read 8192 bytes (a block) at 1160440558.139457
TIME 259 1160440558.1402
INFO: read 8192 bytes (a block) at 1160440558.140224
TIME 260 1160440558.1462
INFO: read 8192 bytes (a block) at 1160440558.146201
TIME 261 1160440558.1600
INFO: read 8192 bytes (a block) at 1160440558.159978
TIME 262 1160440558.1710
INFO: read 8192 bytes (a block) at 1160440558.171002
TIME 263 1160440558.1730
INFO: read 8192 bytes (a block) at 1160440558.172985
TIME 264 1160440558.1775
INFO: read 8192 bytes (a block) at 1160440558.177506
TIME 265 1160440558.2036
INFO: read 8192 bytes (a block) at 1160440558.203573
TIME 266 1160440558.2137
INFO: read 8192 bytes (a block) at 1160440558.213705
TIME 267 1160440558.2149
INFO: read 8192 bytes (a block) at 1160440558.214874
TIME 268 1160440558.2257
INFO: read 8192 bytes (a block) at 1160440558.225681
TIME 269 1160440558.2450
INFO: read 8192 bytes (a block) at 1160440558.244950
TIME 270 1160440558.2486
INFO: read 8192 bytes (a block) at 1160440558.248622
TIME 271 1160440558.2691
INFO: read 8192 bytes (a block) at 1160440558.269117
TIME 272 1160440558.2764
INFO: read 8192 bytes (a block) at 1160440558.276424
TIME 273 1160440558.2803
INFO: read 8192 bytes (a block) at 1160440558.280343
TIME 274 1160440558.2879
INFO: read 8192 bytes (a block) at 1160440558.287879
TIME 275 1160440558.3066
INFO: read 8192 bytes (a block) at 1160440558.306551
TIME 276 1160440558.3075
INFO: read 8192 bytes (a block) at 1160440558.307532
TIME 277 1160440558.3114
INFO: read 8192 bytes (a block) at 1160440558.311404
TIME 278 1160440558.3296
INFO: read 8192 bytes (a block) at 1160440558.329644
TIME 279 1160440558.3576
INFO: read 8192 bytes (a block) at 1160440558.357615
TIME 280 1160440558.3618
INFO: read 8192 bytes (a block) at 1160440558.361765
TIME 281 1160440558.3644
INFO: read 8192 bytes (a block) at 1160440558.364355
TIME 282 1160440558.3885
INFO: read 8192 bytes (a block) at 1160440558.388529
TIME 283 1160440558.3899
INFO: read 8192 bytes (a block) at 1160440558.389912
TIME 284 1160440558.3930
INFO: read 8192 bytes (a block) at 1160440558.392972
TIME 285 1160440558.3954
INFO: read 8192 bytes (a block) at 1160440558.395393
TIME 286 1160440558.4211
INFO: read 8192 bytes (a block) at 1160440558.421070
TIME 287 1160440558.4219
INFO: read 8192 bytes (a block) at 1160440558.421859
TIME 288 1160440558.4239
INFO: read 8192 bytes (a block) at 1160440558.423856
TIME 289 1160440558.4505
INFO: read 8192 bytes (a block) at 1160440558.450479
TIME 290 1160440558.4524
INFO: read 8192 bytes (a block) at 1160440558.452394
TIME 291 1160440558.4542
INFO: read 8192 bytes (a block) at 1160440558.454177
TIME 292 1160440558.4570
INFO: read 8192 bytes (a block) at 1160440558.456976
TIME 293 1160440558.4825
INFO: read 8192 bytes (a block) at 1160440558.482539
TIME 294 1160440558.4840
INFO: read 8192 bytes (a block) at 1160440558.484028
TIME 295 1160440558.4861
INFO: read 8192 bytes (a block) at 1160440558.486092
TIME 296 1160440558.5119
INFO: read 8192 bytes (a block) at 1160440558.511855
TIME 297 1160440558.5166
INFO: read 8192 bytes (a block) at 1160440558.516648
TIME 298 1160440558.5167
INFO: read 8192 bytes (a block) at 1160440558.516679
TIME 299 1160440558.5424
INFO: read 8192 bytes (a block) at 1160440558.542387
TIME 300 1160440558.5472
INFO: read 8192 bytes (a block) at 1160440558.547182
TIME 301 1160440558.5480
INFO: read 8192 bytes (a block) at 1160440558.547990
TIME 302 1160440558.5490
INFO: read 8192 bytes (a block) at 1160440558.548981
TIME 303 1160440558.5775
INFO: read 8192 bytes (a block) at 1160440558.577548
TIME 304 1160440558.5870
INFO: read 8192 bytes (a block) at 1160440558.587002
TIME 305 1160440558.5870
INFO: read 8192 bytes (a block) at 1160440558.587037
TIME 306 1160440558.6037
INFO: read 8192 bytes (a block) at 1160440558.603677
TIME 307 1160440558.6182
INFO: read 8192 bytes (a block) at 1160440558.618230
TIME 308 1160440558.6191
INFO: read 8192 bytes (a block) at 1160440558.619070
TIME 309 1160440558.6198
INFO: read 8192 bytes (a block) at 1160440558.619818
TIME 310 1160440558.6402
INFO: read 8192 bytes (a block) at 1160440558.640223
TIME 311 1160440558.6496
INFO: read 8192 bytes (a block) at 1160440558.649617
TIME 312 1160440558.6505
INFO: read 8192 bytes (a block) at 1160440558.650491
TIME 313 1160440558.6652
INFO: read 8192 bytes (a block) at 1160440558.665230
TIME 314 1160440558.6798
INFO: read 8192 bytes (a block) at 1160440558.679792
TIME 315 1160440558.6806
INFO: read 8192 bytes (a block) at 1160440558.680590
TIME 316 1160440558.6838
INFO: read 8192 bytes (a block) at 1160440558.683837
TIME 317 1160440558.7022
INFO: read 8192 bytes (a block) at 1160440558.702239
TIME 318 1160440558.7111
INFO: read 8192 bytes (a block) at 1160440558.711144
TIME 319 1160440558.7123
INFO: read 8192 bytes (a block) at 1160440558.712293
TIME 320 1160440558.7298
INFO: read 8192 bytes (a block) at 1160440558.729842
TIME 321 1160440558.7420
INFO: read 8192 bytes (a block) at 1160440558.741954
TIME 322 1160440558.7437
INFO: read 8192 bytes (a block) at 1160440558.743720
TIME 323 1160440558.7614
INFO: read 8192 bytes (a block) at 1160440558.761385
TIME 324 1160440558.7772
INFO: read 8192 bytes (a block) at 1160440558.777226
TIME 325 1160440558.7786
INFO: read 8192 bytes (a block) at 1160440558.778582
TIME 326 1160440558.7920
INFO: read 8192 bytes (a block) at 1160440558.792032
TIME 327 1160440558.8106
INFO: read 8192 bytes (a block) at 1160440558.810605
TIME 328 1160440558.8106
INFO: read 8192 bytes (a block) at 1160440558.810629
TIME 329 1160440558.8226
INFO: read 8192 bytes (a block) at 1160440558.822641
TIME 330 1160440558.8416
INFO: read 8192 bytes (a block) at 1160440558.841630
TIME 331 1160440558.8445
INFO: read 8192 bytes (a block) at 1160440558.844522
TIME 332 1160440558.8539
INFO: read 8192 bytes (a block) at 1160440558.853872
TIME 333 1160440558.8721
INFO: read 8192 bytes (a block) at 1160440558.872140
TIME 334 1160440558.8756
INFO: read 8192 bytes (a block) at 1160440558.875589
TIME 335 1160440558.8798
INFO: read 8192 bytes (a block) at 1160440558.879775
TIME 336 1160440558.8939
INFO: read 8192 bytes (a block) at 1160440558.893946
TIME 337 1160440558.9040
INFO: read 8192 bytes (a block) at 1160440558.903988
TIME 338 1160440558.9072
INFO: read 8192 bytes (a block) at 1160440558.907211
TIME 339 1160440558.9165
INFO: read 8192 bytes (a block) at 1160440558.916508
TIME 340 1160440558.9366
INFO: read 8192 bytes (a block) at 1160440558.936565
TIME 341 1160440558.9376
INFO: read 8192 bytes (a block) at 1160440558.937622
TIME 342 1160440558.9413
INFO: read 8192 bytes (a block) at 1160440558.941344
TIME 343 1160440558.9685
INFO: read 8192 bytes (a block) at 1160440558.968510
TIME 344 1160440558.9728
INFO: read 8192 bytes (a block) at 1160440558.972796
TIME 345 1160440558.9741
INFO: read 8192 bytes (a block) at 1160440558.974118
TIME 346 1160440558.9780
INFO: read 8192 bytes (a block) at 1160440558.977970
TIME 347 1160440559.0041
INFO: read 8192 bytes (a block) at 1160440559.004102
TIME 348 1160440559.0053
INFO: read 8192 bytes (a block) at 1160440559.005260
TIME 349 1160440559.0064
INFO: read 8192 bytes (a block) at 1160440559.006436
TIME 350 1160440559.0336
INFO: read 8192 bytes (a block) at 1160440559.033584
TIME 351 1160440559.0362
INFO: read 8192 bytes (a block) at 1160440559.036177
TIME 352 1160440559.0402
INFO: read 8192 bytes (a block) at 1160440559.040248
TIME 353 1160440559.0643
INFO: read 8192 bytes (a block) at 1160440559.064274
TIME 354 1160440559.0686
INFO: read 8192 bytes (a block) at 1160440559.068649
TIME 355 1160440559.0708
INFO: read 8192 bytes (a block) at 1160440559.070850
TIME 356 1160440559.0946
INFO: read 8192 bytes (a block) at 1160440559.094647
TIME 357 1160440559.1024
INFO: read 8192 bytes (a block) at 1160440559.102448
TIME 358 1160440559.1036
INFO: read 8192 bytes (a block) at 1160440559.103612
TIME 359 1160440559.1974
INFO: read 8192 bytes (a block) at 1160440559.197422
TIME 360 1160440559.1986
INFO: read 8192 bytes (a block) at 1160440559.198604
TIME 361 1160440559.6381
INFO: read 8192 bytes (a block) at 1160440559.638107
TIME 362 1160440559.6392
INFO: read 8192 bytes (a block) at 1160440559.639186
TIME 363 1160440559.6711
INFO: read 8192 bytes (a block) at 1160440559.671102
TIME 364 1160440559.6711
INFO: read 8192 bytes (a block) at 1160440559.671135
TIME 365 1160440559.6727
INFO: read 8192 bytes (a block) at 1160440559.672710
TIME 366 1160440559.7032
INFO: read 8192 bytes (a block) at 1160440559.703180
TIME 367 1160440559.7040
INFO: read 8192 bytes (a block) at 1160440559.703967
TIME 368 1160440559.7056
INFO: read 8192 bytes (a block) at 1160440559.705563
TIME 369 1160440559.7333
INFO: read 8192 bytes (a block) at 1160440559.733280
TIME 370 1160440559.7342
INFO: read 8192 bytes (a block) at 1160440559.734218
TIME 371 1160440559.7370
INFO: read 8192 bytes (a block) at 1160440559.736984
TIME 372 1160440559.7379
INFO: read 8192 bytes (a block) at 1160440559.737934
TIME 373 1160440559.7642
INFO: read 8192 bytes (a block) at 1160440559.764199
TIME 374 1160440559.7655
INFO: read 8192 bytes (a block) at 1160440559.765462
TIME 375 1160440559.7682
INFO: read 8192 bytes (a block) at 1160440559.768170
TIME 376 1160440559.7722
INFO: read 8192 bytes (a block) at 1160440559.772247
TIME 377 1160440559.7958
INFO: read 8192 bytes (a block) at 1160440559.795778
TIME 378 1160440559.7965
INFO: read 8192 bytes (a block) at 1160440559.796514
TIME 379 1160440559.7991
INFO: read 8192 bytes (a block) at 1160440559.799079
TIME 380 1160440559.8282
INFO: read 8192 bytes (a block) at 1160440559.828234
TIME 381 1160440559.8283
INFO: read 8192 bytes (a block) at 1160440559.828266
TIME 382 1160440559.8296
INFO: read 8192 bytes (a block) at 1160440559.829609
TIME 383 1160440559.8618
INFO: read 8192 bytes (a block) at 1160440559.861757
TIME 384 1160440559.8618
INFO: read 8192 bytes (a block) at 1160440559.861789
TIME 385 1160440559.8618
INFO: read 8192 bytes (a block) at 1160440559.861801
TIME 386 1160440559.8934
INFO: read 8192 bytes (a block) at 1160440559.893372
TIME 387 1160440559.8941
INFO: read 8192 bytes (a block) at 1160440559.894074
TIME 388 1160440559.8949
INFO: read 8192 bytes (a block) at 1160440559.894943
TIME 389 1160440559.8958
INFO: read 8192 bytes (a block) at 1160440559.895811
TIME 390 1160440559.9243
INFO: read 8192 bytes (a block) at 1160440559.924270
TIME 391 1160440559.9250
INFO: read 8192 bytes (a block) at 1160440559.925018
TIME 392 1160440559.9260
INFO: read 8192 bytes (a block) at 1160440559.926037
TIME 393 1160440559.9284
INFO: read 8192 bytes (a block) at 1160440559.928393
TIME 394 1160440559.9555
INFO: read 8192 bytes (a block) at 1160440559.955464
TIME 395 1160440559.9565
INFO: read 8192 bytes (a block) at 1160440559.956481
TIME 396 1160440559.9587
INFO: read 8192 bytes (a block) at 1160440559.958678
TIME 397 1160440559.9857
INFO: read 8192 bytes (a block) at 1160440559.985680
TIME 398 1160440559.9868
INFO: read 8192 bytes (a block) at 1160440559.986822
TIME 399 1160440559.9876
INFO: read 8192 bytes (a block) at 1160440559.987591
TIME 400 1160440559.9898
INFO: read 8192 bytes (a block) at 1160440559.989760
TIME 401 1160440560.0171
INFO: read 8192 bytes (a block) at 1160440560.017055
TIME 402 1160440560.0178
INFO: read 8192 bytes (a block) at 1160440560.017819
TIME 403 1160440560.0186
INFO: read 8192 bytes (a block) at 1160440560.018617
TIME 404 1160440560.0209
INFO: read 8192 bytes (a block) at 1160440560.020880
TIME 405 1160440560.0479
INFO: read 8192 bytes (a block) at 1160440560.047949
TIME 406 1160440560.0492
INFO: read 8192 bytes (a block) at 1160440560.049170
TIME 407 1160440560.0510
INFO: read 8192 bytes (a block) at 1160440560.051021
TIME 408 1160440560.0783
INFO: read 8192 bytes (a block) at 1160440560.078325
TIME 409 1160440560.0795
INFO: read 8192 bytes (a block) at 1160440560.079543
TIME 410 1160440560.0803
INFO: read 8192 bytes (a block) at 1160440560.080340
TIME 411 1160440560.0830
INFO: read 8192 bytes (a block) at 1160440560.083022
TIME 412 1160440560.1122
INFO: read 8192 bytes (a block) at 1160440560.112241
TIME 413 1160440560.1123
INFO: read 8192 bytes (a block) at 1160440560.112275
TIME 414 1160440560.1127
INFO: read 8192 bytes (a block) at 1160440560.112737
TIME 415 1160440560.1429
INFO: read 8192 bytes (a block) at 1160440560.142949
TIME 416 1160440560.1436
INFO: read 8192 bytes (a block) at 1160440560.143621
TIME 417 1160440560.1444
INFO: read 8192 bytes (a block) at 1160440560.144387
TIME 418 1160440560.1451
INFO: read 8192 bytes (a block) at 1160440560.145143
TIME 419 1160440560.1737
INFO: read 8192 bytes (a block) at 1160440560.173681
TIME 420 1160440560.1745
INFO: read 8192 bytes (a block) at 1160440560.174520
TIME 421 1160440560.1755
INFO: read 8192 bytes (a block) at 1160440560.175464
TIME 422 1160440560.2020
INFO: read 8192 bytes (a block) at 1160440560.201980
TIME 423 1160440560.2048
INFO: read 8192 bytes (a block) at 1160440560.204796
TIME 424 1160440560.2056
INFO: read 8192 bytes (a block) at 1160440560.205607
TIME 425 1160440560.2064
INFO: read 8192 bytes (a block) at 1160440560.206414
TIME 426 1160440560.2347
INFO: read 8192 bytes (a block) at 1160440560.234709
TIME 427 1160440560.2360
INFO: read 8192 bytes (a block) at 1160440560.235995
TIME 428 1160440560.2366
INFO: read 8192 bytes (a block) at 1160440560.236624
TIME 429 1160440560.2375
INFO: read 8192 bytes (a block) at 1160440560.237483
TIME 430 1160440560.2658
INFO: read 8192 bytes (a block) at 1160440560.265765
TIME 431 1160440560.2668
INFO: read 8192 bytes (a block) at 1160440560.266765
TIME 432 1160440560.2676
INFO: read 8192 bytes (a block) at 1160440560.267565
TIME 433 1160440560.2944
INFO: read 8192 bytes (a block) at 1160440560.294407
TIME 434 1160440560.2969
INFO: read 8192 bytes (a block) at 1160440560.296924
TIME 435 1160440560.2981
INFO: read 8192 bytes (a block) at 1160440560.298120
TIME 436 1160440560.2989
INFO: read 8192 bytes (a block) at 1160440560.298887
TIME 437 1160440560.3307
INFO: read 8192 bytes (a block) at 1160440560.330663
TIME 438 1160440560.3307
INFO: read 8192 bytes (a block) at 1160440560.330698
TIME 439 1160440560.3307
INFO: read 8192 bytes (a block) at 1160440560.330713
TIME 440 1160440560.3612
INFO: read 8192 bytes (a block) at 1160440560.361165
TIME 441 1160440560.3619
INFO: read 8192 bytes (a block) at 1160440560.361897
TIME 442 1160440560.3629
INFO: read 8192 bytes (a block) at 1160440560.362877
TIME 443 1160440560.3637
INFO: read 8192 bytes (a block) at 1160440560.363714
TIME 444 1160440560.3921
INFO: read 8192 bytes (a block) at 1160440560.392077
TIME 445 1160440560.3931
INFO: read 8192 bytes (a block) at 1160440560.393107
TIME 446 1160440560.3959
INFO: read 8192 bytes (a block) at 1160440560.395936
TIME 447 1160440560.4224
INFO: read 8192 bytes (a block) at 1160440560.422424
TIME 448 1160440560.4232
INFO: read 8192 bytes (a block) at 1160440560.423158
TIME 449 1160440560.4254
INFO: read 8192 bytes (a block) at 1160440560.425389
TIME 450 1160440560.4295
INFO: read 8192 bytes (a block) at 1160440560.429535
TIME 451 1160440560.4535
INFO: read 8192 bytes (a block) at 1160440560.453547
TIME 452 1160440560.4544
INFO: read 8192 bytes (a block) at 1160440560.454438
TIME 453 1160440560.4574
INFO: read 8192 bytes (a block) at 1160440560.457350
TIME 454 1160440560.4841
INFO: read 8192 bytes (a block) at 1160440560.484095
TIME 455 1160440560.4853
INFO: read 8192 bytes (a block) at 1160440560.485318
TIME 456 1160440560.4878
INFO: read 8192 bytes (a block) at 1160440560.487776
TIME 457 1160440560.4909
INFO: read 8192 bytes (a block) at 1160440560.490881
TIME 458 1160440560.5157
INFO: read 8192 bytes (a block) at 1160440560.515659
TIME 459 1160440560.5233
INFO: read 8192 bytes (a block) at 1160440560.523334
TIME 460 1160440560.5369
INFO: read 8192 bytes (a block) at 1160440560.536901
TIME 461 1160440560.5450
INFO: read 8192 bytes (a block) at 1160440560.545032
TIME 462 1160440560.5491
INFO: read 8192 bytes (a block) at 1160440560.549148
TIME 463 1160440560.5665
INFO: read 8192 bytes (a block) at 1160440560.566456
TIME 464 1160440560.5714
INFO: read 8192 bytes (a block) at 1160440560.571389
TIME 465 1160440560.5768
INFO: read 8192 bytes (a block) at 1160440560.576824
TIME 466 1160440560.5805
INFO: read 8192 bytes (a block) at 1160440560.580547
TIME 467 1160440560.5976
INFO: read 8192 bytes (a block) at 1160440560.597608
TIME 468 1160440560.6071
INFO: read 8192 bytes (a block) at 1160440560.607094
TIME 469 1160440560.6081
INFO: read 8192 bytes (a block) at 1160440560.608069
TIME 470 1160440560.6155
INFO: read 8192 bytes (a block) at 1160440560.615543
TIME 471 1160440560.6338
INFO: read 8192 bytes (a block) at 1160440560.633845
TIME 472 1160440560.6382
INFO: read 8192 bytes (a block) at 1160440560.638218
TIME 473 1160440560.6417
INFO: read 8192 bytes (a block) at 1160440560.641732
TIME 474 1160440560.6636
INFO: read 8192 bytes (a block) at 1160440560.663584
TIME 475 1160440560.6691
INFO: read 8192 bytes (a block) at 1160440560.669116
TIME 476 1160440560.6734
INFO: read 8192 bytes (a block) at 1160440560.673386
TIME 477 1160440560.6957
INFO: read 8192 bytes (a block) at 1160440560.695655
TIME 478 1160440560.6997
INFO: read 8192 bytes (a block) at 1160440560.699716
TIME 479 1160440560.7026
INFO: read 8192 bytes (a block) at 1160440560.702640
TIME 480 1160440560.7191
INFO: read 8192 bytes (a block) at 1160440560.719105
TIME 481 1160440560.7279
INFO: read 8192 bytes (a block) at 1160440560.727933
TIME 482 1160440560.7318
INFO: read 8192 bytes (a block) at 1160440560.731819
TIME 483 1160440560.7508
INFO: read 8192 bytes (a block) at 1160440560.750767
TIME 484 1160440560.7523
INFO: read 8192 bytes (a block) at 1160440560.752286
TIME 485 1160440560.7609
INFO: read 8192 bytes (a block) at 1160440560.760854
TIME 486 1160440560.7628
INFO: read 8192 bytes (a block) at 1160440560.762845
TIME 487 1160440560.7841
INFO: read 8192 bytes (a block) at 1160440560.784107
TIME 488 1160440560.7883
INFO: read 8192 bytes (a block) at 1160440560.788298
TIME 489 1160440560.7919
INFO: read 8192 bytes (a block) at 1160440560.791943
TIME 490 1160440560.8148
INFO: read 8192 bytes (a block) at 1160440560.814766
TIME 491 1160440560.8164
INFO: read 8192 bytes (a block) at 1160440560.816404
TIME 492 1160440560.8216
INFO: read 8192 bytes (a block) at 1160440560.821629
TIME 493 1160440560.8251
INFO: read 8192 bytes (a block) at 1160440560.825055
TIME 494 1160440560.8526
INFO: read 8192 bytes (a block) at 1160440560.852637
TIME 495 1160440560.8541
INFO: read 8192 bytes (a block) at 1160440560.854067
TIME 496 1160440560.8584
INFO: read 8192 bytes (a block) at 1160440560.858443
TIME 497 1160440560.8899
INFO: read 8192 bytes (a block) at 1160440560.889900
TIME 498 1160440560.8913
INFO: read 8192 bytes (a block) at 1160440560.891327
TIME 499 1160440560.8921
INFO: read 8192 bytes (a block) at 1160440560.892097
TIME 500 1160440560.9071
INFO: read 8192 bytes (a block) at 1160440560.907109
TIME 501 1160440560.9244
INFO: read 8192 bytes (a block) at 1160440560.924390
TIME 502 1160440560.9244
INFO: read 8192 bytes (a block) at 1160440560.924424
TIME 503 1160440560.9463
INFO: read 8192 bytes (a block) at 1160440560.946336
TIME 504 1160440560.9560
INFO: read 8192 bytes (a block) at 1160440560.955952
TIME 505 1160440560.9562
INFO: read 8192 bytes (a block) at 1160440560.956193
TIME 506 1160440560.9833
INFO: read 8192 bytes (a block) at 1160440560.983340
TIME 507 1160440560.9868
INFO: read 8192 bytes (a block) at 1160440560.986826
TIME 508 1160440560.9876
INFO: read 8192 bytes (a block) at 1160440560.987558
TIME 509 1160440560.9995
INFO: read 8192 bytes (a block) at 1160440560.999457
TIME 510 1160440561.0313
INFO: read 8192 bytes (a block) at 1160440561.031322
TIME 511 1160440561.0326
INFO: read 8192 bytes (a block) at 1160440561.032636
TIME 512 1160440561.0339
INFO: read 8192 bytes (a block) at 1160440561.033902
TIME 513 1160440561.0499
INFO: read 8192 bytes (a block) at 1160440561.049860
TIME 514 1160440561.0643
INFO: read 8192 bytes (a block) at 1160440561.064275
TIME 515 1160440561.0650
INFO: read 8192 bytes (a block) at 1160440561.064998
TIME 516 1160440561.0809
INFO: read 8192 bytes (a block) at 1160440561.080895
TIME 517 1160440561.0961
INFO: read 8192 bytes (a block) at 1160440561.096145
TIME 518 1160440561.0995
INFO: read 8192 bytes (a block) at 1160440561.099463
TIME 519 1160440561.1127
INFO: read 8192 bytes (a block) at 1160440561.112715
TIME 520 1160440561.1287
INFO: read 8192 bytes (a block) at 1160440561.128746
TIME 521 1160440561.1305
INFO: read 8192 bytes (a block) at 1160440561.130456
TIME 522 1160440561.1456
INFO: read 8192 bytes (a block) at 1160440561.145641
TIME 523 1160440561.1594
INFO: read 8192 bytes (a block) at 1160440561.159418
TIME 524 1160440561.1605
INFO: read 8192 bytes (a block) at 1160440561.160484
TIME 525 1160440561.1620
INFO: read 8192 bytes (a block) at 1160440561.162048
TIME 526 1160440561.1878
INFO: read 8192 bytes (a block) at 1160440561.187787
TIME 527 1160440561.1912
INFO: read 8192 bytes (a block) at 1160440561.191216
TIME 528 1160440561.1928
INFO: read 8192 bytes (a block) at 1160440561.192809
TIME 529 1160440561.2193
INFO: read 8192 bytes (a block) at 1160440561.219303
TIME 530 1160440561.2228
INFO: read 8192 bytes (a block) at 1160440561.222761
TIME 531 1160440561.2299
INFO: read 8192 bytes (a block) at 1160440561.229894
TIME 532 1160440561.2351
INFO: read 8192 bytes (a block) at 1160440561.235146
TIME 533 1160440561.2504
INFO: read 8192 bytes (a block) at 1160440561.250353
TIME 534 1160440561.2548
INFO: read 8192 bytes (a block) at 1160440561.254804
TIME 535 1160440561.2647
INFO: read 8192 bytes (a block) at 1160440561.264742
TIME 536 1160440561.2815
INFO: read 8192 bytes (a block) at 1160440561.281465
TIME 537 1160440561.2907
INFO: read 8192 bytes (a block) at 1160440561.290654
TIME 538 1160440561.3014
INFO: read 8192 bytes (a block) at 1160440561.301382
TIME 539 1160440561.3127
INFO: read 8192 bytes (a block) at 1160440561.312668
TIME 540 1160440561.3231
INFO: read 8192 bytes (a block) at 1160440561.323129
TIME 541 1160440561.3323
INFO: read 8192 bytes (a block) at 1160440561.332331
TIME 542 1160440561.3385
INFO: read 8192 bytes (a block) at 1160440561.338509
TIME 543 1160440561.3488
INFO: read 8192 bytes (a block) at 1160440561.348821
TIME 544 1160440561.3626
INFO: read 8192 bytes (a block) at 1160440561.362608
TIME 545 1160440561.3640
INFO: read 8192 bytes (a block) at 1160440561.364004
TIME 546 1160440561.3846
INFO: read 8192 bytes (a block) at 1160440561.384606
TIME 547 1160440561.4137
INFO: read 8192 bytes (a block) at 1160440561.413656
TIME 548 1160440561.4137
INFO: read 8192 bytes (a block) at 1160440561.413707
TIME 549 1160440561.4188
INFO: read 8192 bytes (a block) at 1160440561.418774
TIME 550 1160440561.4467
INFO: read 8192 bytes (a block) at 1160440561.446683
TIME 551 1160440561.4467
INFO: read 8192 bytes (a block) at 1160440561.446720
TIME 552 1160440561.4578
INFO: read 8192 bytes (a block) at 1160440561.457760
TIME 553 1160440561.4795
INFO: read 8192 bytes (a block) at 1160440561.479482
TIME 554 1160440561.4810
INFO: read 8192 bytes (a block) at 1160440561.481015
TIME 555 1160440561.5184
INFO: read 8192 bytes (a block) at 1160440561.518389
TIME 556 1160440561.5184
INFO: read 8192 bytes (a block) at 1160440561.518413
TIME 557 1160440561.5184
INFO: read 8192 bytes (a block) at 1160440561.518427
TIME 558 1160440561.5501
INFO: read 8192 bytes (a block) at 1160440561.550061
TIME 559 1160440561.5510
INFO: read 8192 bytes (a block) at 1160440561.550981
TIME 560 1160440561.5521
INFO: read 8192 bytes (a block) at 1160440561.552149
TIME 561 1160440561.5830
INFO: read 8192 bytes (a block) at 1160440561.582954
TIME 562 1160440561.5839
INFO: read 8192 bytes (a block) at 1160440561.583936
TIME 563 1160440561.5848
INFO: read 8192 bytes (a block) at 1160440561.584759
TIME 564 1160440561.5880
INFO: read 8192 bytes (a block) at 1160440561.587965
TIME 565 1160440561.6178
INFO: read 8192 bytes (a block) at 1160440561.617844
TIME 566 1160440561.6201
INFO: read 8192 bytes (a block) at 1160440561.620068
TIME 567 1160440561.6462
INFO: read 8192 bytes (a block) at 1160440561.646151
TIME 568 1160440561.6516
INFO: read 8192 bytes (a block) at 1160440561.651576
TIME 569 1160440561.6516
INFO: read 8192 bytes (a block) at 1160440561.651626
TIME 570 1160440561.6616
INFO: read 8192 bytes (a block) at 1160440561.661599
TIME 571 1160440561.6821
INFO: read 8192 bytes (a block) at 1160440561.682068
TIME 572 1160440561.6831
INFO: read 8192 bytes (a block) at 1160440561.683063
TIME 573 1160440561.6922
INFO: read 8192 bytes (a block) at 1160440561.692248
TIME 574 1160440561.7071
INFO: read 8192 bytes (a block) at 1160440561.707144
TIME 575 1160440561.7131
INFO: read 8192 bytes (a block) at 1160440561.713141
TIME 576 1160440561.7140
INFO: read 8192 bytes (a block) at 1160440561.714039
TIME 577 1160440561.7242
INFO: read 8192 bytes (a block) at 1160440561.724183
TIME 578 1160440561.7434
INFO: read 8192 bytes (a block) at 1160440561.743428
TIME 579 1160440561.7453
INFO: read 8192 bytes (a block) at 1160440561.745268
TIME 580 1160440561.7538
INFO: read 8192 bytes (a block) at 1160440561.753772
TIME 581 1160440561.7755
INFO: read 8192 bytes (a block) at 1160440561.775544
TIME 582 1160440561.7840
INFO: read 8192 bytes (a block) at 1160440561.783958
TIME 583 1160440561.7871
INFO: read 8192 bytes (a block) at 1160440561.787143
TIME 584 1160440561.8067
INFO: read 8192 bytes (a block) at 1160440561.806746
TIME 585 1160440561.8075
INFO: read 8192 bytes (a block) at 1160440561.807528
TIME 586 1160440561.8167
INFO: read 8192 bytes (a block) at 1160440561.816684
TIME 587 1160440561.8373
INFO: read 8192 bytes (a block) at 1160440561.837340
TIME 588 1160440561.8382
INFO: read 8192 bytes (a block) at 1160440561.838161
TIME 589 1160440561.8458
INFO: read 8192 bytes (a block) at 1160440561.845833
TIME 590 1160440561.8514
INFO: read 8192 bytes (a block) at 1160440561.851353
TIME 591 1160440561.8683
INFO: read 8192 bytes (a block) at 1160440561.868324
TIME 592 1160440561.8698
INFO: read 8192 bytes (a block) at 1160440561.869812
TIME 593 1160440561.8780
INFO: read 8192 bytes (a block) at 1160440561.878043
TIME 594 1160440561.9040
INFO: read 8192 bytes (a block) at 1160440561.903953
TIME 595 1160440561.9040
INFO: read 8192 bytes (a block) at 1160440561.903975
TIME 596 1160440561.9089
INFO: read 8192 bytes (a block) at 1160440561.908856
TIME 597 1160440561.9345
INFO: read 8192 bytes (a block) at 1160440561.934531
TIME 598 1160440561.9352
INFO: read 8192 bytes (a block) at 1160440561.935243
TIME 599 1160440561.9378
INFO: read 8192 bytes (a block) at 1160440561.937814
TIME 600 1160440561.9602
INFO: read 8192 bytes (a block) at 1160440561.960217
TIME 601 1160440561.9657
INFO: read 8192 bytes (a block) at 1160440561.965677
TIME 602 1160440561.9665
INFO: read 8192 bytes (a block) at 1160440561.966530
TIME 603 1160440561.9689
INFO: read 8192 bytes (a block) at 1160440561.968912
TIME 604 1160440561.9967
INFO: read 8192 bytes (a block) at 1160440561.996665
TIME 605 1160440561.9976
INFO: read 8192 bytes (a block) at 1160440561.997628
TIME 606 1160440562.0000
INFO: read 8192 bytes (a block) at 1160440561.999996
TIME 607 1160440562.0296
INFO: read 8192 bytes (a block) at 1160440562.029578
TIME 608 1160440562.0303
INFO: read 8192 bytes (a block) at 1160440562.030254
TIME 609 1160440562.0327
INFO: read 8192 bytes (a block) at 1160440562.032675
TIME 610 1160440562.0525
INFO: read 8192 bytes (a block) at 1160440562.052484
TIME 611 1160440562.0607
INFO: read 8192 bytes (a block) at 1160440562.060678
TIME 612 1160440562.0633
INFO: read 8192 bytes (a block) at 1160440562.063283
TIME 613 1160440562.0653
INFO: read 8192 bytes (a block) at 1160440562.065331
TIME 614 1160440562.0919
INFO: read 8192 bytes (a block) at 1160440562.091852
TIME 615 1160440562.0959
INFO: read 8192 bytes (a block) at 1160440562.095900
TIME 616 1160440562.0991
INFO: read 8192 bytes (a block) at 1160440562.099101
TIME 617 1160440562.1259
INFO: read 8192 bytes (a block) at 1160440562.125876
TIME 618 1160440562.1354
INFO: read 8192 bytes (a block) at 1160440562.135398
TIME 619 1160440562.1574
INFO: read 8192 bytes (a block) at 1160440562.157372
TIME 620 1160440562.1584
INFO: read 8192 bytes (a block) at 1160440562.158404
TIME 621 1160440562.1665
INFO: read 8192 bytes (a block) at 1160440562.166452
TIME 622 1160440562.1674
INFO: read 8192 bytes (a block) at 1160440562.167389
TIME 623 1160440562.1892
INFO: read 8192 bytes (a block) at 1160440562.189248
TIME 624 1160440562.2213
INFO: read 8192 bytes (a block) at 1160440562.221312
TIME 625 1160440562.2214
INFO: read 8192 bytes (a block) at 1160440562.221366
TIME 626 1160440562.2214
INFO: read 8192 bytes (a block) at 1160440562.221390
TIME 627 1160440562.2635
INFO: read 8192 bytes (a block) at 1160440562.263503
TIME 628 1160440562.3249
INFO: read 8192 bytes (a block) at 1160440562.324895
TIME 629 1160440562.3553
INFO: read 8192 bytes (a block) at 1160440562.355337
TIME 630 1160440562.3592
INFO: read 8192 bytes (a block) at 1160440562.359198
TIME 631 1160440562.3860
INFO: read 8192 bytes (a block) at 1160440562.385986
TIME 632 1160440562.3868
INFO: read 8192 bytes (a block) at 1160440562.386804
TIME 633 1160440562.3914
INFO: read 8192 bytes (a block) at 1160440562.391450
TIME 634 1160440562.4174
INFO: read 8192 bytes (a block) at 1160440562.417391
TIME 635 1160440562.4182
INFO: read 8192 bytes (a block) at 1160440562.418151
TIME 636 1160440562.4244
INFO: read 8192 bytes (a block) at 1160440562.424383
TIME 637 1160440562.4498
INFO: read 8192 bytes (a block) at 1160440562.449824
TIME 638 1160440562.4565
INFO: read 8192 bytes (a block) at 1160440562.456470
TIME 639 1160440562.4831
INFO: read 8192 bytes (a block) at 1160440562.483095
TIME 640 1160440562.4925
INFO: read 8192 bytes (a block) at 1160440562.492465
TIME 641 1160440562.5138
INFO: read 8192 bytes (a block) at 1160440562.513763
TIME 642 1160440562.5145
INFO: read 8192 bytes (a block) at 1160440562.514504
TIME 643 1160440562.5247
INFO: read 8192 bytes (a block) at 1160440562.524697
TIME 644 1160440562.5445
INFO: read 8192 bytes (a block) at 1160440562.544452
TIME 645 1160440562.5453
INFO: read 8192 bytes (a block) at 1160440562.545277
TIME 646 1160440562.5565
INFO: read 8192 bytes (a block) at 1160440562.556453
TIME 647 1160440562.5750
INFO: read 8192 bytes (a block) at 1160440562.574980
TIME 648 1160440562.5764
INFO: read 8192 bytes (a block) at 1160440562.576422
TIME 649 1160440562.5884
INFO: read 8192 bytes (a block) at 1160440562.588354
TIME 650 1160440562.6106
INFO: read 8192 bytes (a block) at 1160440562.610579
TIME 651 1160440562.6106
INFO: read 8192 bytes (a block) at 1160440562.610613
TIME 652 1160440562.6184
INFO: read 8192 bytes (a block) at 1160440562.618421
TIME 653 1160440562.6416
INFO: read 8192 bytes (a block) at 1160440562.641633
TIME 654 1160440562.6429
INFO: read 8192 bytes (a block) at 1160440562.642869
TIME 655 1160440562.6514
INFO: read 8192 bytes (a block) at 1160440562.651366
TIME 656 1160440562.6736
INFO: read 8192 bytes (a block) at 1160440562.673552
TIME 657 1160440562.6743
INFO: read 8192 bytes (a block) at 1160440562.674337
TIME 658 1160440562.6832
INFO: read 8192 bytes (a block) at 1160440562.683165
TIME 659 1160440562.7040
INFO: read 8192 bytes (a block) at 1160440562.703955
TIME 660 1160440562.7048
INFO: read 8192 bytes (a block) at 1160440562.704824
TIME 661 1160440562.7143
INFO: read 8192 bytes (a block) at 1160440562.714271
TIME 662 1160440562.7341
INFO: read 8192 bytes (a block) at 1160440562.734128
TIME 663 1160440562.7353
INFO: read 8192 bytes (a block) at 1160440562.735339
TIME 664 1160440562.7455
INFO: read 8192 bytes (a block) at 1160440562.745501
TIME 665 1160440562.7647
INFO: read 8192 bytes (a block) at 1160440562.764722
TIME 666 1160440562.7661
INFO: read 8192 bytes (a block) at 1160440562.766050
TIME 667 1160440562.7774
INFO: read 8192 bytes (a block) at 1160440562.777361
TIME 668 1160440562.7953
INFO: read 8192 bytes (a block) at 1160440562.795326
TIME 669 1160440562.7968
INFO: read 8192 bytes (a block) at 1160440562.796817
TIME 670 1160440562.8080
INFO: read 8192 bytes (a block) at 1160440562.807985
TIME 671 1160440562.8186
INFO: read 8192 bytes (a block) at 1160440562.818573
TIME 672 1160440562.8285
INFO: read 8192 bytes (a block) at 1160440562.828496
TIME 673 1160440562.8285
INFO: read 8192 bytes (a block) at 1160440562.828524
TIME 674 1160440562.8479
INFO: read 8192 bytes (a block) at 1160440562.847907
TIME 675 1160440562.8592
INFO: read 8192 bytes (a block) at 1160440562.859222
TIME 676 1160440562.8601
INFO: read 8192 bytes (a block) at 1160440562.860064
TIME 677 1160440562.8785
INFO: read 8192 bytes (a block) at 1160440562.878453
TIME 678 1160440562.8895
INFO: read 8192 bytes (a block) at 1160440562.889490
TIME 679 1160440562.8903
INFO: read 8192 bytes (a block) at 1160440562.890334
TIME 680 1160440562.8913
INFO: read 8192 bytes (a block) at 1160440562.891315
TIME 681 1160440562.9132
INFO: read 8192 bytes (a block) at 1160440562.913237
TIME 682 1160440562.9210
INFO: read 8192 bytes (a block) at 1160440562.920995
TIME 683 1160440562.9224
INFO: read 8192 bytes (a block) at 1160440562.922403
TIME 684 1160440562.9411
INFO: read 8192 bytes (a block) at 1160440562.941094
TIME 685 1160440562.9513
INFO: read 8192 bytes (a block) at 1160440562.951276
TIME 686 1160440562.9564
INFO: read 8192 bytes (a block) at 1160440562.956392
TIME 687 1160440562.9760
INFO: read 8192 bytes (a block) at 1160440562.975979
TIME 688 1160440562.9821
INFO: read 8192 bytes (a block) at 1160440562.982078
TIME 689 1160440562.9871
INFO: read 8192 bytes (a block) at 1160440562.987073
TIME 690 1160440563.0038
INFO: read 8192 bytes (a block) at 1160440563.003834
TIME 691 1160440563.0123
INFO: read 8192 bytes (a block) at 1160440563.012324
TIME 692 1160440563.0187
INFO: read 8192 bytes (a block) at 1160440563.018694
TIME 693 1160440563.0381
INFO: read 8192 bytes (a block) at 1160440563.038058
TIME 694 1160440563.0449
INFO: read 8192 bytes (a block) at 1160440563.044890
TIME 695 1160440563.0522
INFO: read 8192 bytes (a block) at 1160440563.052242
TIME 696 1160440563.0693
INFO: read 8192 bytes (a block) at 1160440563.069283
TIME 697 1160440563.0796
INFO: read 8192 bytes (a block) at 1160440563.079556
TIME 698 1160440563.0860
INFO: read 8192 bytes (a block) at 1160440563.086006
TIME 699 1160440563.1036
INFO: read 8192 bytes (a block) at 1160440563.103600
TIME 700 1160440563.1105
INFO: read 8192 bytes (a block) at 1160440563.110515
TIME 701 1160440563.1167
INFO: read 8192 bytes (a block) at 1160440563.116660
TIME 702 1160440563.1308
INFO: read 8192 bytes (a block) at 1160440563.130782
TIME 703 1160440563.1408
INFO: read 8192 bytes (a block) at 1160440563.140785
TIME 704 1160440563.1416
INFO: read 8192 bytes (a block) at 1160440563.141615
TIME 705 1160440563.1477
INFO: read 8192 bytes (a block) at 1160440563.147733
TIME 706 1160440563.1629
INFO: read 8192 bytes (a block) at 1160440563.162894
TIME 707 1160440563.1734
INFO: read 8192 bytes (a block) at 1160440563.173415
TIME 708 1160440563.1780
INFO: read 8192 bytes (a block) at 1160440563.178035
TIME 709 1160440563.1925
INFO: read 8192 bytes (a block) at 1160440563.192492
TIME 710 1160440563.2050
INFO: read 8192 bytes (a block) at 1160440563.205049
TIME 711 1160440563.2061
INFO: read 8192 bytes (a block) at 1160440563.206076
TIME 712 1160440563.2097
INFO: read 8192 bytes (a block) at 1160440563.209703
TIME 713 1160440563.2263
INFO: read 8192 bytes (a block) at 1160440563.226264
TIME 714 1160440563.2450
INFO: read 8192 bytes (a block) at 1160440563.244970
TIME 715 1160440563.2450
INFO: read 8192 bytes (a block) at 1160440563.245004
TIME 716 1160440563.2450
INFO: read 8192 bytes (a block) at 1160440563.245018
TIME 717 1160440563.2754
INFO: read 8192 bytes (a block) at 1160440563.275426
TIME 718 1160440563.2762
INFO: read 8192 bytes (a block) at 1160440563.276239
TIME 719 1160440563.2770
INFO: read 8192 bytes (a block) at 1160440563.276968
TIME 720 1160440563.2844
INFO: read 8192 bytes (a block) at 1160440563.284432
TIME 721 1160440563.3069
INFO: read 8192 bytes (a block) at 1160440563.306895
TIME 722 1160440563.3095
INFO: read 8192 bytes (a block) at 1160440563.309479
TIME 723 1160440563.3157
INFO: read 8192 bytes (a block) at 1160440563.315724
TIME 724 1160440563.3375
INFO: read 8192 bytes (a block) at 1160440563.337533
TIME 725 1160440563.3402
INFO: read 8192 bytes (a block) at 1160440563.340238
TIME 726 1160440563.3417
INFO: read 8192 bytes (a block) at 1160440563.341745
TIME 727 1160440563.3680
INFO: read 8192 bytes (a block) at 1160440563.368034
TIME 728 1160440563.3712
INFO: read 8192 bytes (a block) at 1160440563.371179
TIME 729 1160440563.3727
INFO: read 8192 bytes (a block) at 1160440563.372689
TIME 730 1160440563.3824
INFO: read 8192 bytes (a block) at 1160440563.382437
TIME 731 1160440563.3995
INFO: read 8192 bytes (a block) at 1160440563.399547
TIME 732 1160440563.4023
INFO: read 8192 bytes (a block) at 1160440563.402319
TIME 733 1160440563.4052
INFO: read 8192 bytes (a block) at 1160440563.405180
TIME 734 1160440563.4297
INFO: read 8192 bytes (a block) at 1160440563.429746
TIME 735 1160440563.4311
INFO: read 8192 bytes (a block) at 1160440563.431075
TIME 736 1160440563.4347
INFO: read 8192 bytes (a block) at 1160440563.434673
TIME 737 1160440563.4453
INFO: read 8192 bytes (a block) at 1160440563.445277
TIME 738 1160440563.4621
INFO: read 8192 bytes (a block) at 1160440563.462090
TIME 739 1160440563.4642
INFO: read 8192 bytes (a block) at 1160440563.464217
TIME 740 1160440563.4679
INFO: read 8192 bytes (a block) at 1160440563.467921
TIME 741 1160440563.4911
INFO: read 8192 bytes (a block) at 1160440563.491106
TIME 742 1160440563.4943
INFO: read 8192 bytes (a block) at 1160440563.494288
TIME 743 1160440563.4962
INFO: read 8192 bytes (a block) at 1160440563.496201
TIME 744 1160440563.5039
INFO: read 8192 bytes (a block) at 1160440563.503871
TIME 745 1160440563.5231
INFO: read 8192 bytes (a block) at 1160440563.523090
TIME 746 1160440563.5255
INFO: read 8192 bytes (a block) at 1160440563.525505
TIME 747 1160440563.5274
INFO: read 8192 bytes (a block) at 1160440563.527356
TIME 748 1160440563.5437
INFO: read 8192 bytes (a block) at 1160440563.543723
TIME 749 1160440563.5538
INFO: read 8192 bytes (a block) at 1160440563.553803
TIME 750 1160440563.5582
INFO: read 8192 bytes (a block) at 1160440563.558150
TIME 751 1160440563.5652
INFO: read 8192 bytes (a block) at 1160440563.565161
TIME 752 1160440563.5861
INFO: read 8192 bytes (a block) at 1160440563.586104
TIME 753 1160440563.5967
INFO: read 8192 bytes (a block) at 1160440563.596669
TIME 754 1160440563.5967
INFO: read 8192 bytes (a block) at 1160440563.596698
TIME 755 1160440563.6171
INFO: read 8192 bytes (a block) at 1160440563.617109
TIME 756 1160440563.6276
INFO: read 8192 bytes (a block) at 1160440563.627603
TIME 757 1160440563.6285
INFO: read 8192 bytes (a block) at 1160440563.628525
TIME 758 1160440563.6476
INFO: read 8192 bytes (a block) at 1160440563.647595
TIME 759 1160440563.6578
INFO: read 8192 bytes (a block) at 1160440563.657838
TIME 760 1160440563.6602
INFO: read 8192 bytes (a block) at 1160440563.660231
TIME 761 1160440563.6662
INFO: read 8192 bytes (a block) at 1160440563.666177
TIME 762 1160440563.6809
INFO: read 8192 bytes (a block) at 1160440563.680947
TIME 763 1160440563.6913
INFO: read 8192 bytes (a block) at 1160440563.691262
TIME 764 1160440563.6922
INFO: read 8192 bytes (a block) at 1160440563.692187
TIME 765 1160440563.7130
INFO: read 8192 bytes (a block) at 1160440563.712999
TIME 766 1160440563.7220
INFO: read 8192 bytes (a block) at 1160440563.722018
TIME 767 1160440563.7242
INFO: read 8192 bytes (a block) at 1160440563.724189
TIME 768 1160440563.7438
INFO: read 8192 bytes (a block) at 1160440563.743757
TIME 769 1160440563.7529
INFO: read 8192 bytes (a block) at 1160440563.752894
TIME 770 1160440563.7537
INFO: read 8192 bytes (a block) at 1160440563.753680
TIME 771 1160440563.7605
INFO: read 8192 bytes (a block) at 1160440563.760520
TIME 772 1160440563.7747
INFO: read 8192 bytes (a block) at 1160440563.774696
TIME 773 1160440563.7893
INFO: read 8192 bytes (a block) at 1160440563.789259
TIME 774 1160440563.7922
INFO: read 8192 bytes (a block) at 1160440563.792157
TIME 775 1160440563.8048
INFO: read 8192 bytes (a block) at 1160440563.804765
TIME 776 1160440563.8151
INFO: read 8192 bytes (a block) at 1160440563.815143
TIME 777 1160440563.8230
INFO: read 8192 bytes (a block) at 1160440563.822979
TIME 778 1160440563.8378
INFO: read 8192 bytes (a block) at 1160440563.837793
TIME 779 1160440563.8466
INFO: read 8192 bytes (a block) at 1160440563.846578
TIME 780 1160440563.8560
INFO: read 8192 bytes (a block) at 1160440563.856002
TIME 781 1160440563.8683
INFO: read 8192 bytes (a block) at 1160440563.868326
TIME 782 1160440563.8770
INFO: read 8192 bytes (a block) at 1160440563.876989
TIME 783 1160440563.8876
INFO: read 8192 bytes (a block) at 1160440563.887557
TIME 784 1160440563.8882
INFO: read 8192 bytes (a block) at 1160440563.888240
TIME 785 1160440563.8994
INFO: read 8192 bytes (a block) at 1160440563.899444
TIME 786 1160440563.9131
INFO: read 8192 bytes (a block) at 1160440563.913131
TIME 787 1160440563.9229
INFO: read 8192 bytes (a block) at 1160440563.922914
TIME 788 1160440563.9299
INFO: read 8192 bytes (a block) at 1160440563.929942
TIME 789 1160440563.9524
INFO: read 8192 bytes (a block) at 1160440563.952380
TIME 790 1160440563.9564
INFO: read 8192 bytes (a block) at 1160440563.956396
TIME 791 1160440563.9614
INFO: read 8192 bytes (a block) at 1160440563.961404
TIME 792 1160440563.9839
INFO: read 8192 bytes (a block) at 1160440563.983910
TIME 793 1160440563.9874
INFO: read 8192 bytes (a block) at 1160440563.987392
TIME 794 1160440563.9883
INFO: read 8192 bytes (a block) at 1160440563.988263
TIME 795 1160440563.9934
INFO: read 8192 bytes (a block) at 1160440563.993437
TIME 796 1160440564.0149
INFO: read 8192 bytes (a block) at 1160440564.014869
TIME 797 1160440564.0189
INFO: read 8192 bytes (a block) at 1160440564.018869
TIME 798 1160440564.0223
INFO: read 8192 bytes (a block) at 1160440564.022337
TIME 799 1160440564.0457
INFO: read 8192 bytes (a block) at 1160440564.045713
TIME 800 1160440564.0488
INFO: read 8192 bytes (a block) at 1160440564.048810
TIME 801 1160440564.0568
INFO: read 8192 bytes (a block) at 1160440564.056770
TIME 802 1160440564.0654
INFO: read 8192 bytes (a block) at 1160440564.065447
TIME 803 1160440564.0784
INFO: read 8192 bytes (a block) at 1160440564.078400
TIME 804 1160440564.0890
INFO: read 8192 bytes (a block) at 1160440564.088956
TIME 805 1160440564.0949
INFO: read 8192 bytes (a block) at 1160440564.094878
TIME 806 1160440564.1106
INFO: read 8192 bytes (a block) at 1160440564.110557
TIME 807 1160440564.1112
INFO: read 8192 bytes (a block) at 1160440564.111234
TIME 808 1160440564.1286
INFO: read 8192 bytes (a block) at 1160440564.128594
TIME 809 1160440564.1419
INFO: read 8192 bytes (a block) at 1160440564.141945
TIME 810 1160440564.1433
INFO: read 8192 bytes (a block) at 1160440564.143283
TIME 811 1160440564.1593
INFO: read 8192 bytes (a block) at 1160440564.159254
TIME 812 1160440564.1618
INFO: read 8192 bytes (a block) at 1160440564.161843
TIME 813 1160440564.1731
INFO: read 8192 bytes (a block) at 1160440564.173053
TIME 814 1160440564.1843
INFO: read 8192 bytes (a block) at 1160440564.184320
TIME 815 1160440564.1945
INFO: read 8192 bytes (a block) at 1160440564.194537
TIME 816 1160440564.2089
INFO: read 8192 bytes (a block) at 1160440564.208911
TIME 817 1160440564.2160
INFO: read 8192 bytes (a block) at 1160440564.215976
TIME 818 1160440564.2263
INFO: read 8192 bytes (a block) at 1160440564.226287
TIME 819 1160440564.2404
INFO: read 8192 bytes (a block) at 1160440564.240431
TIME 820 1160440564.2509
INFO: read 8192 bytes (a block) at 1160440564.250873
TIME 821 1160440564.2573
INFO: read 8192 bytes (a block) at 1160440564.257263
TIME 822 1160440564.2708
INFO: read 8192 bytes (a block) at 1160440564.270844
TIME 823 1160440564.2731
INFO: read 8192 bytes (a block) at 1160440564.273095
TIME 824 1160440564.2874
INFO: read 8192 bytes (a block) at 1160440564.287356
TIME 825 1160440564.3010
INFO: read 8192 bytes (a block) at 1160440564.301040
TIME 826 1160440564.3019
INFO: read 8192 bytes (a block) at 1160440564.301861
TIME 827 1160440564.3104
INFO: read 8192 bytes (a block) at 1160440564.310396
TIME 828 1160440564.3219
INFO: read 8192 bytes (a block) at 1160440564.321901
TIME 829 1160440564.3389
INFO: read 8192 bytes (a block) at 1160440564.338870
TIME 830 1160440564.3401
INFO: read 8192 bytes (a block) at 1160440564.340056
TIME 831 1160440564.3527
INFO: read 8192 bytes (a block) at 1160440564.352673
TIME 832 1160440564.3695
INFO: read 8192 bytes (a block) at 1160440564.369517
TIME 833 1160440564.3720
INFO: read 8192 bytes (a block) at 1160440564.372024
TIME 834 1160440564.3732
INFO: read 8192 bytes (a block) at 1160440564.373191
TIME 835 1160440564.3841
INFO: read 8192 bytes (a block) at 1160440564.384097
TIME 836 1160440564.4018
INFO: read 8192 bytes (a block) at 1160440564.401828
TIME 837 1160440564.4082
INFO: read 8192 bytes (a block) at 1160440564.408172
TIME 838 1160440564.4147
INFO: read 8192 bytes (a block) at 1160440564.414715
TIME 839 1160440564.4363
INFO: read 8192 bytes (a block) at 1160440564.436270
TIME 840 1160440564.4395
INFO: read 8192 bytes (a block) at 1160440564.439454
TIME 841 1160440564.4449
INFO: read 8192 bytes (